Q2: TF Binding to DE genes
…
                          by="Gene") %>%
  dplyr::group_by(Gene) %>%
  summarise(min_dist2tss=min(abs(distance2nearestTSS)),
            max_dist2tss=max(abs(distance2nearestTSS)),
            mean_dist2tss=mean(abs(distance2nearestTSS)),
            minSignal=min(signalValue),
            maxSignal=max(signalValue),
            n_peaks=n(),
            logFC=logFC,
            is_significant=is_significant) %>%
    distinct() %>%
    dplyr::filter(!is.na(logFC))
  )

# A tibble: 1,594 × 9
# Groups:   Gene [1,594]
   Gene    min_dist2tss max_dist2tss mean_dist2tss minSignal maxSignal n_peaks
   <chr>          <dbl>        <dbl>         <dbl>     <dbl>     <dbl>   <int>
 1 AACS           10442        10643        10542.      11.7      37.1       2
 2 AADAC          22962        22962        22962       54.1      54.1       1
 3 AADACP1         3596         3596         3596       66.0      66.0       1
 4 ABCA1          42187        42187        42187       36.7      36.7       1
 5 ABCA5           2138         2138         2138       48.9      48.9       1
 6 ABCC1          10512        25488        15577.      15.1     102.        3
 7 ABCC11          2570         6191         3844       19.0      64.8       3
 8 ABCC2           2135        17889         8774.      15.4      49.7       3
 9 ABCC3              0         4237         1251.      11.5     118.        8
10 ABCC4          20585        44725        31260.      10.9     213.        8
# … with 1,584 more rows, and 2 more variables: logFC <dbl>,
#   is_significant <lgl>
…
