Q2: TF Binding to DE genes
…
`summarise()` has grouped output by 'Gene'. You can override using the
`.groups` argument.

# A tibble: 2,917 × 9
# Groups:   Gene [2,917]
   Gene    min_dist2tss max_dist2tss mean_dist2tss minSignal maxSignal n_peaks
   <chr>          <dbl>        <dbl>         <dbl>     <dbl>     <dbl>   <int>
 1 AACS           10616        10616         10616      98.9      98.9       1
 2 AADAC          22918        22918         22918     110.      110.        1
 3 AADACP1            0         3756          1878      43.4     147.        2
 4 AADAT           7456         7456          7456      35.5      35.5       1
 5 ABCA1          42111        42111         42111      69.2      69.2       1
 6 ABCA12           189          189           189      31.7      31.7       1
 7 ABCA13         30997        30997         30997      28.4      28.4       1
 8 ABCA5            318         2146          1232      24.2      36.3       2
 9 ABCA7           1021         1021          1021      45.9      45.9       1
10 ABCA8            347          347           347      22.8      22.8       1
# … with 2,907 more rows, and 2 more variables: logFC <dbl>,
#   is_significant <lgl>
…
